…
dct
```

    # A tibble: 144 × 4
       Start Type  Variable   End
       <dbl> <chr> <chr>    <dbl>
     1     1 i     ppsort       6
     2     7 i     aboid        7
     3     8 i     agegrp       9
     4    10 i     ageimm      11
     5    12 i     attsch      12
     6    13 i     bfnmemb     13
     7    14 i     bedrm       14
     8    15 i     cfinc       16
     9    17 i     cfinc_at    18
    10    19 i     cfstat      19
    # ℹ 134 more rows
…
  )

labs
```

    # A tibble: 144 × 2
       Variable Description                                              
       <chr>    <chr>                                                    
     1 aboid    Indigenous: Indigenous identity - Detailed               
     2 agegrp   Age                                                      
     3 ageimm   Immigration: Age at Immigration                          
     4 attsch   Education: School attendance - Detailed                  
     5 bedrm    Bedrooms                                                 
     6 bfnmemb  Indigenous: Membership in a First Nation or Indian band  
     7 capgn    Income: Net capital gains or losses                      
     8 cfinc    Income: Total income of census family for all persons    
     9 cfinc_at Income: After-tax income of census family for all persons
    10 cfsize   Census family size, stored at the person level           
    # ℹ 134 more rows
…
